…
df_trash_merged = df_mr_trash |>
  bind_rows(df_prof_trash, df_gwynnda_trash) |>
  mutate(
    homes_powered = if_else(homes_powered == 0, weight_tons / 30 * 500, homes_powered)
  )

df_trash_merged
```

    ## # A tibble: 845 × 14
    ##    month  year date                weight_tons volume_cubic_yards
    ##    <chr> <dbl> <dttm>                    <dbl>              <dbl>
    ##  1 May    2014 2014-05-16 00:00:00        4.31                 18
    ##  2 May    2014 2014-05-16 00:00:00        2.74                 13
    ##  3 May    2014 2014-05-16 00:00:00        3.45                 15
    ##  4 May    2014 2014-05-17 00:00:00        3.1                  15
    ##  5 May    2014 2014-05-17 00:00:00        4.06                 18
    ##  6 May    2014 2014-05-20 00:00:00        2.71                 13
    ##  7 May    2014 2014-05-21 00:00:00        1.91                  8
    ##  8 May    2014 2014-05-28 00:00:00        3.7                  16
    ##  9 June   2014 2014-06-05 00:00:00        2.52                 14
    ## 10 June   2014 2014-06-11 00:00:00        3.76                 18
    ## # ℹ 835 more rows
    ## # ℹ 9 more variables: plastic_bottles <dbl>, polystyrene <dbl>,
    ## #   cigarette_butts <dbl>, glass_bottles <dbl>, plastic_bags <dbl>,
    ## #   wrappers <dbl>, sports_balls <dbl>, homes_powered <dbl>, wheel <chr>
…
