…
##  $ year        : num [1:822] 1947 1947 1947 1947 1947 ...
##  $ month       : chr [1:822] "January" "February" "March" "April" ...
##  $ month_num   : int [1:822] 1 2 3 4 5 6 7 8 9 10 ...
##  $ gov_gop     : num [1:822] 23 23 23 23 23 23 23 23 23 23 ...
##  $ sen_gop     : num [1:822] 51 51 51 51 51 51 51 51 51 51 ...
##  $ rep_gop     : num [1:822] 253 253 253 253 253 253 253 253 253 253 ...
##  $ gov_dem     : num [1:822] 23 23 23 23 23 23 23 23 23 23 ...
##  $ sen_dem     : num [1:822] 45 45 45 45 45 45 45 45 45 45 ...
##  $ rep_dem     : num [1:822] 198 198 198 198 198 198 198 198 198 198 ...
##  $ president   : chr [1:822] "dem" "dem" "dem" "dem" ...
##  $ month_abb   : chr [1:822] "Jan" "Feb" "Mar" "Apr" ...
##  $ close       : num [1:822] NA NA NA NA NA NA NA NA NA NA ...
##  $ unemployment: num [1:822] NA NA NA NA NA NA NA NA NA NA ...
data_538
## # A tibble: 822 × 13
##     year month     month_num gov_gop sen_gop rep_gop gov_dem sen_dem rep_dem
##    <dbl> <chr>         <int>   <dbl>   <dbl>   <dbl>   <dbl>   <dbl>   <dbl>
##  1  1947 January           1      23      51     253      23      45     198
##  2  1947 February          2      23      51     253      23      45     198
##  3  1947 March             3      23      51     253      23      45     198
##  4  1947 April             4      23      51     253      23      45     198
##  5  1947 May               5      23      51     253      23      45     198
##  6  1947 June              6      23      51     253      23      45     198
##  7  1947 July              7      23      51     253      23      45     198
##  8  1947 August            8      23      51     253      23      45     198
##  9  1947 September         9      23      51     253      23      45     198
## 10  1947 October          10      23      51     253      23      45     198
## # ℹ 812 more rows
## # ℹ 4 more variables: president <chr>, month_abb <chr>, close <dbl>,
## #   unemployment <dbl>
```
…
